<svg width="217" height="64" viewBox="0 0 217 64" fill="none" xmlns="http://www.w3.org/2000/svg">
<path d="M6.49049 52.1442V63.4967H0V26.3074H6.49049V46.8874H8.8405L17.1215 35.8704H24.8429L14.2679 49.2361L25.4024 63.4967H17.4012L8.89645 52.1442H6.49049Z" fill="black"/>
<path d="M34.9624 31.9557H28.0803V26.3074H34.9624V31.9557ZM34.7946 63.4967H28.3041V35.8704H34.7946V63.4967Z" fill="black"/>
<path d="M66.1621 49.6276C66.1621 54.8472 65.1549 58.5568 63.1407 60.7564C61.1637 62.9188 57.7692 64 52.9573 64C48.0708 64 44.639 62.9375 42.662 60.8124C40.685 58.65 39.6966 54.9217 39.6966 49.6276C39.6966 44.4454 40.7037 40.773 42.718 38.6106C44.7323 36.411 48.1454 35.3111 52.9573 35.3111C57.8065 35.3111 61.2196 36.3923 63.1966 38.5547C65.1736 40.6798 66.1621 44.3708 66.1621 49.6276ZM46.187 49.5717C46.187 53.0017 46.616 55.2573 47.474 56.3385C48.3319 57.4196 50.1597 57.9602 52.9573 57.9602C55.6803 57.9602 57.4708 57.4196 58.3287 56.3385C59.224 55.22 59.6716 52.9644 59.6716 49.5717C59.6716 46.1044 59.2426 43.8302 58.3847 42.749C57.5641 41.6678 55.7549 41.1272 52.9573 41.1272C50.197 41.1272 48.3692 41.6864 47.474 42.8049C46.616 43.9234 46.187 46.179 46.187 49.5717Z" fill="black"/>
<path d="M81.4939 40.9035C79.517 40.9035 78.1554 41.1086 77.4094 41.5187C76.7007 41.8915 76.3463 42.7304 76.3463 44.0352C76.3463 44.669 76.4955 45.1537 76.7939 45.4893C77.0924 45.7875 77.5959 45.9926 78.3047 46.1044L85.1868 47.111C87.3876 47.4093 88.917 48.099 89.7749 49.1802C90.6702 50.2614 91.1178 51.9764 91.1178 54.3252C91.1178 57.7179 90.3344 60.1786 88.7678 61.7071C87.2011 63.2357 84.534 64 80.7666 64C78.6031 64 76.6261 63.9068 74.8356 63.7204C73.0451 63.534 71.5344 63.2544 70.3034 62.8815V57.1214C71.4598 57.4196 72.8773 57.6806 74.5558 57.9043C76.2344 58.0907 77.9316 58.1839 79.6475 58.1839C81.5872 58.1839 82.8928 57.9416 83.5642 57.4569C84.2729 56.9723 84.6273 56.0588 84.6273 54.7167C84.6273 54.0456 84.4594 53.5423 84.1237 53.2067C83.788 52.8339 83.2285 52.5916 82.4451 52.4797L75.4511 51.4731C73.5487 51.2121 72.1499 50.5038 71.2546 49.348C70.3594 48.155 69.9118 46.44 69.9118 44.203C69.9118 41.1831 70.8257 38.9462 72.6535 37.4922C74.5185 36.0382 77.3348 35.3111 81.1023 35.3111C82.6316 35.3111 84.0305 35.3484 85.2987 35.423C86.567 35.4976 87.8725 35.6467 89.2154 35.8704V41.4068C88.2456 41.2577 87.0706 41.1459 85.6904 41.0713C84.3475 40.9594 82.9487 40.9035 81.4939 40.9035Z" fill="black"/>
<path d="M115.705 56.5062V61.9308C114.735 62.4901 113.28 62.9747 111.341 63.3848C109.438 63.7949 107.461 64 105.41 64C101.456 64 98.6768 62.9375 97.0728 60.8124C95.4688 58.6873 94.6668 54.959 94.6668 49.6276C94.6668 44.3708 95.6926 40.6798 97.7442 38.5547C99.8331 36.3923 103.414 35.3111 108.487 35.3111C109.718 35.3111 110.818 35.3484 111.788 35.423C112.795 35.4603 113.859 35.5535 114.978 35.7026V41.4628C113.523 41.3509 112.255 41.2763 111.173 41.2391C110.091 41.1645 109.196 41.1272 108.487 41.1272C105.428 41.1272 103.433 41.6678 102.5 42.749C101.605 43.8302 101.157 46.1231 101.157 49.6276C101.157 53.0203 101.512 55.2573 102.22 56.3385C102.966 57.4196 104.496 57.9602 106.809 57.9602C108.338 57.9602 109.905 57.8298 111.509 57.5688C113.15 57.2705 114.549 56.9163 115.705 56.5062Z" fill="black"/>
<path d="M126.537 26.3074V63.4967H120.047V26.3074H126.537Z" fill="black"/>
<path d="M157.905 49.6276C157.905 54.8472 156.897 58.5568 154.883 60.7564C152.906 62.9188 149.512 64 144.7 64C139.813 64 136.381 62.9375 134.404 60.8124C132.427 58.65 131.439 54.9217 131.439 49.6276C131.439 44.4454 132.446 40.773 134.46 38.6106C136.475 36.411 139.888 35.3111 144.7 35.3111C149.549 35.3111 152.962 36.3923 154.939 38.5547C156.916 40.6798 157.905 44.3708 157.905 49.6276ZM137.929 49.5717C137.929 53.0017 138.358 55.2573 139.216 56.3385C140.074 57.4196 141.902 57.9602 144.7 57.9602C147.423 57.9602 149.213 57.4196 150.071 56.3385C150.966 55.22 151.414 52.9644 151.414 49.5717C151.414 46.1044 150.985 43.8302 150.127 42.749C149.307 41.6678 147.497 41.1272 144.7 41.1272C141.939 41.1272 140.112 41.6864 139.216 42.8049C138.358 43.9234 137.929 46.179 137.929 49.5717Z" fill="black"/>
<path d="M171.949 64C168.853 64 166.541 63.2357 165.011 61.7071C163.482 60.1413 162.717 57.8111 162.717 54.7167V35.8704H169.208V53.8778C169.208 55.2945 169.581 56.3198 170.327 56.9536C171.073 57.5874 172.285 57.9043 173.964 57.9043C175.008 57.9043 176.071 57.7925 177.153 57.5688C178.235 57.3451 179.242 57.0468 180.174 56.674V35.8704H186.665V63.4967H180.678L180.454 61.5953H180.286C178.757 62.3782 177.284 62.9747 175.866 63.3848C174.486 63.7949 173.18 64 171.949 64Z" fill="black"/>
<path d="M210.509 26.3074H217V63.4967H211.293L210.901 60.9242H210.621C209.577 61.9681 208.327 62.751 206.873 63.273C205.455 63.7577 203.814 64 201.949 64C198.256 64 195.607 62.8815 194.004 60.6446C192.437 58.4076 191.654 54.7353 191.654 49.6276C191.654 44.5945 192.623 40.9594 194.563 38.7225C196.54 36.4483 199.785 35.3111 204.299 35.3111C205.492 35.3111 206.611 35.4044 207.656 35.5908C208.738 35.7399 209.689 35.9636 210.509 36.2618V26.3074ZM205.194 41.1272C202.322 41.1272 200.419 41.7051 199.487 42.8608C198.592 44.0166 198.144 46.2722 198.144 49.6276C198.144 52.8712 198.536 55.0709 199.319 56.2266C200.14 57.3824 201.8 57.9602 204.299 57.9602C205.492 57.9602 206.611 57.8484 207.656 57.6247C208.7 57.3637 209.652 56.9909 210.509 56.5062V42.0779C209.726 41.7424 208.906 41.5 208.048 41.3509C207.19 41.2018 206.238 41.1272 205.194 41.1272Z" fill="black"/>
<path d="M172.553 29.298H135.836C131.943 29.298 128.715 26.1993 128.485 22.244C128.485 22.2258 128.483 22.2051 128.48 22.1874L128.475 22.0682C128.468 21.9805 128.46 21.8902 128.46 21.7999C128.46 18.2239 130.858 15.2129 134.293 14.4751L134.972 14.3304C135.284 14.2635 135.523 14.0155 135.578 13.7032L135.698 13.0091C136.738 7.03114 141.624 2.3636 147.587 1.65956C148.175 1.58743 148.667 1.55373 149.133 1.55373C153.925 1.55373 158.426 4.15958 160.879 8.35242L161.293 9.05691C161.478 9.3718 161.855 9.51866 162.207 9.40765L162.984 9.16275C163.557 8.9822 164.153 8.88932 164.751 8.88932C167.608 8.88932 170.051 10.8607 170.693 13.6856C170.701 13.7141 170.709 13.7422 170.717 13.7707L171 14.5758C171.11 14.8881 171.406 15.0946 171.739 15.0946H172.556C176.407 15.0946 179.539 18.2809 179.539 22.1952C179.536 26.1121 176.404 29.298 172.553 29.298Z" fill="url(#paint0_linear_605_2)"/>
<path d="M200.53 29.298H163.812C159.92 29.298 156.691 26.1993 156.462 22.244C156.462 22.2258 156.459 22.2051 156.457 22.1874L156.452 22.0682C156.444 21.9805 156.436 21.8902 156.436 21.7999C156.436 18.2239 158.835 15.2129 162.269 14.4751L162.948 14.3304C163.26 14.2635 163.499 14.0155 163.554 13.7032L163.674 13.0091C164.715 7.03114 169.601 2.3636 175.564 1.65956C176.152 1.58743 176.643 1.55373 177.109 1.55373C181.901 1.55373 186.402 4.15958 188.856 8.35242L189.269 9.05691C189.454 9.3718 189.831 9.51866 190.183 9.40765L190.961 9.16275C191.533 8.9822 192.129 8.88932 192.727 8.88932C195.584 8.88932 198.027 10.8607 198.67 13.6856C198.678 13.7141 198.685 13.7422 198.693 13.7707L198.977 14.5758C199.086 14.8881 199.383 15.0946 199.715 15.0946H200.533C204.383 15.0946 207.515 18.2809 207.515 22.1952C207.512 26.1121 204.38 29.298 200.53 29.298Z" fill="#FF287B"/>
<defs>
<linearGradient id="paint0_linear_605_2" x1="35" y1="31.4209" x2="156.247" y2="142.468" gradientUnits="userSpaceOnUse">
<stop stop-color="#FF287B"/>
<stop offset="1" stop-color="white" stop-opacity="0"/>
</linearGradient>
</defs>
</svg>
